{"Quote":[{"text":"Melville had promised Bentley that the book would be ready that autumn, in expectation of which he was sent an advance"},
  {"text":" of 150 pounds. His financial situation was poor and he was desperately in need of a publishing success. Nevertheless,"},
  {"text":" he abandoned the nearly-finished romance to spend an entire year rewriting under a spell of intense intellectual ferment"},
  {"text":" further heightened by the study of Shakespeare and a developing friendship with Nathaniel Hawthorne. The resulting work"},
  {"text":" was finally shipped to Bentley on September 10, 1851."}
]}